{
  "kind": "singleType",
  "collectionName": "qlkh_cau_truc_trang_webs",
  "info": {
    "singularName": "qlkh-cau-truc-trang-web",
    "pluralName": "qlkh-cau-truc-trang-webs",
    "displayName": "QLKH-Cấu trúc trang web",
    "description": ""
  },
  "options": {
    "draftAndPublish": true
  },
  "pluginOptions": {
    "i18n": {
      "localized": true
    }
  },
  "attributes": {
    "cauTruc": {
      "type": "component",
      "repeatable": true,
      "component": "block.nav-item",
      "pluginOptions": {
        "i18n": {
          "localized": true
        }
      }
    }
  }
}
