{
  "collectionName": "components_children_chi_tiet_hoat_dong_khoa_hocs",
  "info": {
    "displayName": "Chi tiết hoạt động khoa học",
    "description": ""
  },
  "options": {},
  "attributes": {
    "tenDeTai": {
      "type": "string"
    },
    "maDeTai": {
      "type": "string"
    },
    "chuNhiemDeTai": {
      "type": "string"
    },
    "thoiGianThucHienBatDau": {
      "type": "date",
      "required": true
    },
    "thoiGianNghiemThu": {
      "type": "date",
      "required": true
    },
    "thoiGianThucHienKetThuc": {
      "type": "date",
      "required": true
    },
    "tapChiHoiNghi": {
      "type": "text"
    }
  }
}
