{
  "collectionName": "components_children_du_lieu_kham_pha",
  "info": {
    "displayName": "dữ liệu khám phá"
  },
  "options": {},
  "attributes": {
    "title": {
      "type": "string"
    },
    "soLuong": {
      "type": "biginteger"
    }
  }
}
