{
  "collectionName": "components_block_banners",
  "info": {
    "displayName": "Banner",
    "description": ""
  },
  "options": {},
  "attributes": {
    "title": {
      "type": "string"
    },
    "images": {
      "type": "media",
      "multiple": false,
      "required": false,
      "allowedTypes": [
        "images"
      ]
    },
    "linkTo": {
      "type": "string"
    }
  }
}
