{
  "kind": "singleType",
  "collectionName": "qlkh_home_pages",
  "info": {
    "singularName": "qlkh-home-page",
    "pluralName": "qlkh-home-pages",
    "displayName": "QLKH-Trang Chủ",
    "description": ""
  },
  "options": {
    "draftAndPublish": true
  },
  "pluginOptions": {
    "i18n": {
      "localized": true
    }
  },
  "attributes": {
    "banner": {
      "type": "component",
      "repeatable": true,
      "component": "block.banner",
      "pluginOptions": {
        "i18n": {
          "localized": true
        }
      }
    },
    "about": {
      "type": "component",
      "repeatable": false,
      "component": "block.about",
      "pluginOptions": {
        "i18n": {
          "localized": true
        }
      }
    },
    "khamPha": {
      "type": "component",
      "repeatable": false,
      "component": "block.kham-pha",
      "pluginOptions": {
        "i18n": {
          "localized": true
        }
      }
    },
    "hoat_dong_khoa_hocs": {
      "type": "relation",
      "relation": "oneToMany",
      "target": "api::hoat-dong-khoa-hoc.hoat-dong-khoa-hoc"
    },
    "tap_chi_khoa_hocs": {
      "type": "relation",
      "relation": "oneToMany",
      "target": "api::tap-chi-khoa-hoc.tap-chi-khoa-hoc"
    },
    "don_vi_nghien_cuus": {
      "type": "relation",
      "relation": "oneToMany",
      "target": "api::don-vi-nghien-cuu.don-vi-nghien-cuu"
    },
    "qlkh_tin_tucs": {
      "type": "relation",
      "relation": "oneToMany",
      "target": "api::qlkh-tin-tuc.qlkh-tin-tuc"
    },
    "duongDanVideo": {
      "type": "text",
      "pluginOptions": {
        "i18n": {
          "localized": true
        }
      }
    }
  }
}
