{
  "kind": "collectionType",
  "collectionName": "htqt_chuong_trinh_du_ans",
  "info": {
    "singularName": "htqt-chuong-trinh-du-an",
    "pluralName": "htqt-chuong-trinh-du-ans",
    "displayName": "HTQT-Chương trình- Dự án",
    "description": ""
  },
  "options": {
    "draftAndPublish": true
  },
  "pluginOptions": {
    "i18n": {
      "localized": true
    }
  },
  "attributes": {
    "tieuDe": {
      "type": "string",
      "pluginOptions": {
        "i18n": {
          "localized": true
        }
      },
      "required": true
    },
    "moTa": {
      "type": "text",
      "pluginOptions": {
        "i18n": {
          "localized": true
        }
      },
      "required": true
    },
    "noiDung": {
      "type": "richtext",
      "pluginOptions": {
        "i18n": {
          "localized": true
        }
      },
      "required": true
    },
    "thoiGianBatDau": {
      "type": "date",
      "pluginOptions": {
        "i18n": {
          "localized": true
        }
      },
      "required": true
    },
    "thoiGianKetThuc": {
      "type": "date",
      "pluginOptions": {
        "i18n": {
          "localized": true
        }
      },
      "required": true
    },
    "hinhAnh": {
      "type": "media",
      "multiple": false,
      "required": true,
      "allowedTypes": [
        "images"
      ],
      "pluginOptions": {
        "i18n": {
          "localized": true
        }
      }
    },
    "tacGia": {
      "pluginOptions": {
        "i18n": {
          "localized": true
        }
      },
      "type": "string"
    }
  }
}
