{
  "kind": "collectionType",
  "collectionName": "htqt_mang_luoi_doi_tacs",
  "info": {
    "singularName": "htqt-mang-luoi-doi-tac",
    "pluralName": "htqt-mang-luoi-doi-tacs",
    "displayName": "HTQT-Mạng lưới đối tác",
    "description": ""
  },
  "options": {
    "draftAndPublish": true
  },
  "pluginOptions": {},
  "attributes": {
    "tieuDe": {
      "type": "string",
      "required": true
    },
    "noiDung": {
      "type": "richtext",
      "required": true
    },
    "kieu": {
      "type": "enumeration",
      "enum": [
        "Mạng lưới quốc tế",
        "Đối tác học thuật",
        "Đối tác doanh nghiệp"
      ],
      "required": true
    },
    "hinhAnh": {
      "type": "media",
      "multiple": false,
      "required": true,
      "allowedTypes": [
        "images"
      ]
    },
    "link": {
      "type": "string"
    },
    "moTa": {
      "type": "text",
      "required": true
    }
  }
}
